2,Personal hygiene,2017-04-05 11:46:17,2017-04-05 11:46:17,2017-04-05 11:46:17
3,Diet and nutrition management,2017-04-05 11:46:17,2017-04-05 11:46:17,2017-04-05 11:46:17
4,Vitamin and supplement management,2017-04-05 11:46:17,2017-04-05 11:46:17,2017-04-05 11:46:17
5,Exercise regimen,2017-04-05 11:46:17,2017-04-05 11:46:17,2017-04-05 11:46:17
6,Stress ,2017-04-05 11:46:17,2017-04-05 11:46:17,2017-04-05 11:46:17
7,Sleep management appropriate for age or stage of development,2017-04-05 11:46:17,2017-04-05 11:46:17,2017-04-05 11:46:17
9,Safe sex practices,2017-04-05 11:46:17,2017-04-05 11:46:17,2017-04-05 11:46:17
10,Avoidance of smoking, excessive alcohol consumption, illicit drug use,2017-04-05 11:46:17,2017-04-05 11:46:17,2017-04-05 11:46:17
12,Use of protective equipment,2017-04-05 11:46:17,2017-04-05 11:46:17,2017-04-05 11:46:17
13,Regular medical and dental examinations screenings immunizations and care,2017-04-05 11:46:17,2017-04-05 11:46:17,2017-04-05 11:46:17
14,Medication management for minor illnesses,2017-04-05 11:46:17,2017-04-05 11:46:17,2017-04-05 11:46:17
15,First aid provision for minor injuries,2017-04-05 11:46:17,2017-04-05 11:46:17,2017-04-05 11:46:
16,Wound care,2017-04-05 11:46:17,2017-04-05 11:46:17,2017-04-05 11:46:17
17,Burn care,2017-04-05 11:46:17,2017-04-05 11:46:17,2017-04-05 11:46:17
18,Recovery from serious injuries,2017-04-05 11:46:17,2017-04-05 11:46:17,2017-04-05 11:46:17
19,Recovery from major incidents heart attack stroke,2017-04-05 11:46:17,2017-04-05 11:46:17,2017-04-05 11:46:17
20,Recovery from surgeries,2017-04-05 11:46:17,2017-04-05 11:46:17,2017-04-05 11:46:17
21,Allergy treatment,2017-04-05 11:46:17,2017-04-05 11:46:17,2017-04-05 11:46:17
22,Pregnancy management and postpartum recovery,2017-04-05 11:46:17,2017-04-05 11:46:17,2017-04-05 11:46:17
23,Diabetes management,2017-04-05 11:46:17,2017-04-05 11:46:17,2017-04-05 11:46:17
24,Asthma management,2017-04-05 11:46:17,2017-04-05 11:46:17,2017-04-05 11:46:17
25,Apnea management,2017-04-05 11:46:17,2017-04-05 11:46:17,2017-04-05 11:46:17
26,Nutritional therapy,2017-04-05 11:46:17,2017-04-05 11:46:17,2017-04-05 11:46:17
27,Home infusion ,2017-04-05 11:46:17,2017-04-05 11:46:17,2017-04-05 11:46:17
28,Respiratory therapy,2017-04-05 11:46:17,2017-04-05 11:46:17,2017-04-05 11:46:17
29,Home dialysis,2017-04-05 11:46:17,2017-04-05 11:46:17,2017-04-05 11:46:17
30,Chronic obstructive pulmonary disease COPD care,2017-04-05 11:46:17,2017-04-05 11:46:17,2017-04-05 11:46:17
31,Tracheostomy care,2017-04-05 11:46:17,2017-04-05 11:46:17,2017-04-05 11:46:17
32,Decubitus ulcer pressure sore care,2017-04-05 11:46:17,2017-04-05 11:46:17,2017-04-05 11:46:17
33,Stoma  colostomy ileostomy ureterostomy care,2017-04-05 11:46:17,2017-04-05 11:46:17,2017-04-05 11:46:17
34,Catheterization and related care,2017-04-05 11:46:17,2017-04-05 11:46:17,2017-04-05 11:46:17
35,Rehabilitation regimens prescribed by physiatrists or physical,2017-04-05 11:46:17,2017-04-05 11:46:17,2017-04-05 11:46:17
36,Psychotherapeutic regimens,2017-04-05 11:46:17,2017-04-05 11:46:17,2017-04-05 11:46:17
37,Pain management,2017-04-05 11:46:17,2017-04-05 11:46:17,2017-04-05 11:46:17
38,Symptom management,2017-04-05 11:46:17,2017-04-05 11:46:17,2017-04-05 11:46:17
39,Care recipient and family counseling,2017-04-05 11:46:17,2017-04-05 11:46:17,2017-04-05 11:46:17

